{
  "dependencies": {},
  "globalDependencies": {
    "cookies": "registry:dt/cookies#0.5.1+20160316171810",
    "koa": "registry:dt/koa#2.0.0+20161025101853",
    "koa-bodyparser": "registry:dt/koa-bodyparser#3.0.0+20160928122441",
    "koa-router": "registry:dt/koa-router#7.0.0+20160907102352",
    "node": "registry:env/node#6.0.0+20161105011511"
  }
}
